[
  {
    "id":"1",
    "file": "definitions1.json",
    "name":"Definicje 1",
    "type": "definitions"

  },
  {
    "id":"1",
    "file": "vocabulary_food.json",
    "name":"W kuchni",
    "type": "words"

  },
  {
    "id": "1",
    "file": "hiragana.json",
    "name": "Hiragana",
    "type": "words"
  },
  {
    "id": "2",
    "file": "katakana.json",
    "name": "Katakana",
    "type": "words"
  },
  {
    "id": "3",
    "file": "basic.json",
    "name": "Podstawy",
    "type": "words"
  },
  {
    "id": "4",
    "file": "basic2.json",
    "name": "Podstawy 2",
    "type": "words"
  },
  {
    "id": "1",

    "file": "animals.json",
    "name": "Zwierzęta",
    "type": "words"
  },
  {
    "id": "1",

    "file": "tokyo_stations.json",
    "name": "Miejsca",
    "type": "words"
  },
  {
    "id": "1",

    "file": "family.json",
    "name": "Rodzina",
    "type": "words"
  },
  {
    "id": "1",

    "file": "vocabulary_intermediate1.json",
    "name": "Sredniozaawansowane",
    "type": "words"
  },
  {
    "id": "1",

    "file": "vocabulary_intermediate2.json",
    "name": "Sredniozaawansowane 2",
    "type": "words"
  },
  {
    "id": "1",

    "file": "vocabulary_intermediate3.json",
    "name": "Sredniozaawansowane 3",
    "type": "words"
  }
]
